<svg xmlns="http://www.w3.org/2000/svg" xmlns:xlink="http://www.w3.org/1999/xlink" viewBox="0 0 127 127">
  <defs>
    <style>
      .cls-1 {
        fill: #f4406d;
      }

      .cls-2 {
        fill: #fff;
        font-size: 60px;
        font-family: HelveticaNeue, Helvetica Neue;
      }

      .cls-3 {
        filter: url(#Path_875);
      }
    </style>
    <filter id="Path_875" x="0" y="0" width="127" height="127" filterUnits="userSpaceOnUse">
      <feOffset dy="6" input="SourceAlpha"/>
      <feGaussianBlur stdDeviation="4.5" result="blur"/>
      <feFlood flood-opacity="0.102"/>
      <feComposite operator="in" in2="blur"/>
      <feComposite in="SourceGraphic"/>
    </filter>
  </defs>
  <g id="Group_367" data-name="Group 367" transform="translate(-116.5 -236.5)">
    <g id="Group_448" data-name="Group 448">
      <g class="cls-3" transform="matrix(1, 0, 0, 1, 116.5, 236.5)">
        <path id="Path_875-2" data-name="Path 875" class="cls-1" d="M50,0A50,50,0,1,1,0,50,50,50,0,0,1,50,0Z" transform="translate(13.5 7.5)"/>
      </g>
      <text id="_" data-name="?" class="cls-2" transform="translate(163 261)"><tspan x="0" y="57">?</tspan></text>
    </g>
  </g>
</svg>
