<svg xmlns="http://www.w3.org/2000/svg" viewBox="3507 1801 105.075 100">
  <defs>
    <style>
      .cls-1 {
        fill: #4a4a4a;
      }
    </style>
  </defs>
  <g id="Symbol_16_1" data-name="Symbol 16 – 1" transform="translate(2120)">
    <path id="Path_11" data-name="Path 11" class="cls-1" d="M102.367,0H2.959A2.8,2.8,0,0,0,0,2.959V97.041A2.8,2.8,0,0,0,2.959,100h99.112a2.8,2.8,0,0,0,2.959-2.959V2.959A2.448,2.448,0,0,0,102.367,0ZM82.544,74.556H5.917V25.74h93.2V74.26H82.544ZM99.408,19.822H85.5V5.917H99.408Zm-19.822,0H65.68V5.917H79.586V19.822Zm-19.822,0H45.858V5.917H59.763Zm-19.822,0H25.74V5.917H39.645V19.822ZM5.917,5.917H19.822V19.822H5.917Zm0,74.556H19.822V94.379H5.917Zm19.822,0H39.645V94.379H25.74Zm20.118,0H59.763V94.379H45.858V80.473Zm19.822,0H79.586V94.379H65.68ZM99.408,94.379H85.5V80.473H99.408Z" transform="translate(1387 1801)"/>
  </g>
</svg>
