<svg xmlns="http://www.w3.org/2000/svg" viewBox="3036.763 2463.234 87.292 143.531">
  <defs>
    <style>
      .cls-1 {
        fill: #4a4a4a;
      }
    </style>
  </defs>
  <g id="Symbol_18_1" data-name="Symbol 18 – 1" transform="translate(2120)">
    <path id="Path_14" data-name="Path 14" class="cls-1" d="M73.975,12.218A43.669,43.669,0,0,0,.017,42.133,45.74,45.74,0,0,0,5.28,64.847c5.263,9.695,13.573,28.808,13.573,40.165v5.263a2.617,2.617,0,0,0,2.77,2.77H65.388a2.617,2.617,0,0,0,2.77-2.77v-5.817c0-9.695,7.2-27.423,13.85-39.888A45.326,45.326,0,0,0,87.271,43.8,41.271,41.271,0,0,0,73.975,12.218ZM34.918,71.772a27.848,27.848,0,0,0,8.864,1.939,20.951,20.951,0,0,0,8.864-1.939L48.214,107.5H39.627ZM77.576,61.8C72.036,71.772,62.9,91.993,62.9,104.181v3.047H53.754l4.432-36.01a4.8,4.8,0,0,0-1.939-4.432,4.846,4.846,0,0,0-4.709-.554,19.891,19.891,0,0,1-7.756,1.939,19.891,19.891,0,0,1-7.756-1.939,4.194,4.194,0,0,0-4.709.554,4.8,4.8,0,0,0-1.939,4.432L34.087,107.5H24.669v-2.493c0-12.188-8.587-32.409-14.4-42.658A38.382,38.382,0,0,1,70.374,16.1,37.5,37.5,0,0,1,82.285,43.8,44.519,44.519,0,0,1,77.576,61.8Z" transform="translate(916.772 2463.251)"/>
    <path id="Path_15" data-name="Path 15" class="cls-1" d="M50.258,42.5H10.37a2.77,2.77,0,1,0,0,5.54H50.258a2.617,2.617,0,0,0,2.77-2.77A2.776,2.776,0,0,0,50.258,42.5Z" transform="translate(930.241 2538.505)"/>
    <path id="Path_16" data-name="Path 16" class="cls-1" d="M39.816,46.1H12.67a2.77,2.77,0,1,0,0,5.54H39.816a2.617,2.617,0,0,0,2.77-2.77A2.979,2.979,0,0,0,39.816,46.1Z" transform="translate(934.312 2544.877)"/>
    <path id="Path_17" data-name="Path 17" class="cls-1" d="M31.821,49.8H14.37a2.77,2.77,0,1,0,0,5.54H31.821a2.77,2.77,0,1,0,0-5.54Z" transform="translate(937.321 2551.426)"/>
    <path id="Path_18" data-name="Path 18" class="cls-1" d="M34.485,5.2C18.419,5.2,5.4,18.773,5.4,35.393a2.617,2.617,0,0,0,2.77,2.77,2.617,2.617,0,0,0,2.77-2.77c0-13.573,10.526-24.653,23.545-24.653a2.617,2.617,0,0,0,2.77-2.77A2.776,2.776,0,0,0,34.485,5.2Z" transform="translate(926.347 2472.485)"/>
  </g>
</svg>
