<svg id="Group_237" data-name="Group 237" xmlns="http://www.w3.org/2000/svg" viewBox="0 0 56.625 18.295">
  <defs>
    <style>
      .cls-1 {
        fill: #fff;
      }
    </style>
  </defs>
  <path id="Path_791" data-name="Path 791" class="cls-1" d="M1046.093,25.955H1041.9l-.553-2.625h-5.889l-.943,2.609c-.154.035-4.39.048-4.787.015.021-.061.038-.12.062-.176q.658-1.574,1.318-3.148l2.375-5.666,2.812-6.709c.1-.228.187-.458.285-.684a2.051,2.051,0,0,1,1.48-1.242,1.833,1.833,0,0,1,.405-.052c1.309,0,2.618,0,3.924,0l.02.013a.036.036,0,0,1,.012.014.793.793,0,0,1,.03.093q1.824,8.728,3.648,17.456a.182.182,0,0,1-.006.106ZM1039.211,13.1c-.016.005-.026.005-.028.009a.587.587,0,0,0-.044.085q-1.17,3.236-2.339,6.472s0,.013.006.018a.2.2,0,0,0,.016.022.466.466,0,0,0,.069.009q1.788,0,3.576,0a.557.557,0,0,0,.116-.028Z" transform="translate(-989.478 -7.95)"/>
  <path id="Path_792" data-name="Path 792" class="cls-1" d="M14.067,25.907H9.233c-.083-.315-.166-.628-.247-.941q-.912-3.529-1.823-7.057-.772-2.991-1.546-5.982c-.057-.22-.124-.438-.193-.654a1.578,1.578,0,0,0-.771-.944c-.32-.173-.645-.338-.98-.48a19.9,19.9,0,0,0-2.91-.938C.513,8.848.261,8.789,0,8.727a2.048,2.048,0,0,1,.085-.508H7.75a2.42,2.42,0,0,1,.732.1A2.082,2.082,0,0,1,9.948,9.919c.114.473.188.956.279,1.435q.223,1.178.444,2.356.268,1.427.536,2.854.24,1.274.482,2.547c.06.319.119.639.181.958.01.054.029.106.053.194L16.682,8.225h4.8Z" transform="translate(0 -7.897)"/>
  <path id="Path_793" data-name="Path 793" class="cls-1" d="M714.925.794l-.794,3.712a1.511,1.511,0,0,1-.153-.048,8.712,8.712,0,0,0-1.969-.611,9.753,9.753,0,0,0-1.122-.134,8.365,8.365,0,0,0-1.033,0,3.032,3.032,0,0,0-1.548.475,1.381,1.381,0,0,0-.612.827.973.973,0,0,0,.111.733,1.707,1.707,0,0,0,.406.471,7.317,7.317,0,0,0,1.25.794c.6.326,1.2.646,1.8.986a7.264,7.264,0,0,1,1.553,1.175,4.035,4.035,0,0,1,1.225,2.427A5.345,5.345,0,0,1,712.9,15.68a6.082,6.082,0,0,1-2.2,1.688,9.5,9.5,0,0,1-2.838.81,12.084,12.084,0,0,1-2.084.108,14.637,14.637,0,0,1-4.269-.737c-.11-.038-.219-.083-.327-.127-.047-.019-.093-.043-.152-.07l.826-3.86.649.293a8.853,8.853,0,0,0,2.615.747,8.184,8.184,0,0,0,1.909.045,3.61,3.61,0,0,0,1.5-.467,1.776,1.776,0,0,0,.5-.434A1.312,1.312,0,0,0,708.982,12a3.116,3.116,0,0,0-.846-.685c-.482-.271-.97-.53-1.461-.783a10.587,10.587,0,0,1-2.094-1.352,4.7,4.7,0,0,1-1.463-2.06,3.806,3.806,0,0,1-.192-1.208A5.056,5.056,0,0,1,704.3,2.363a6.624,6.624,0,0,1,2.33-1.6A9.393,9.393,0,0,1,709.184.09a11.718,11.718,0,0,1,1.989-.079,12.609,12.609,0,0,1,3.676.742A.642.642,0,0,1,714.925.794Z" transform="translate(-673.629 0.001)"/>
  <path id="Path_794" data-name="Path 794" class="cls-1" d="M507.593,8.408h4.526a.128.128,0,0,1,.018.02.047.047,0,0,1,0,.019.15.15,0,0,1,0,.039q-1.881,8.8-3.765,17.6h-4.53c-.008-.006-.015-.009-.018-.015a.044.044,0,0,1,0-.019.167.167,0,0,1,0-.039Q505.709,17.217,507.593,8.408Z" transform="translate(-484.133 -8.079)"/>
</svg>
